<?xml version="1.0" standalone="no"?>
<!DOCTYPE svg PUBLIC "-//W3C//DTD SVG 20010904//EN"
 "http://www.w3.org/TR/2001/REC-SVG-20010904/DTD/svg10.dtd">
<svg version="1.0" xmlns="http://www.w3.org/2000/svg"
 width="700.000000pt" height="700.000000pt" viewBox="0 0 700.000000 700.000000"
 preserveAspectRatio="xMidYMid meet">
<metadata>
Created by potrace 1.11, written by Peter Selinger 2001-2013
</metadata>
<g transform="translate(0.000000,700.000000) scale(0.100000,-0.100000)"
fill="#000000" stroke="none">
<path d="M15 5761 c3 -6 47 -45 98 -88 51 -43 98 -83 105 -91 8 -7 75 -65 150
-129 76 -65 139 -120 142 -123 3 -3 34 -30 70 -60 36 -30 70 -60 76 -66 6 -5
35 -30 64 -55 29 -24 58 -49 64 -54 19 -18 467 -403 596 -514 41 -35 88 -75
105 -90 16 -14 64 -55 106 -91 220 -188 355 -305 359 -309 3 -4 35 -32 71 -63
66 -57 92 -71 389 -208 69 -32 166 -77 215 -100 397 -187 652 -303 665 -302 9
0 69 25 135 55 66 30 192 87 280 127 88 40 187 84 220 100 33 15 132 59 220
99 93 41 175 85 195 104 38 35 169 151 239 213 25 22 58 51 73 65 24 22 75 68
178 159 92 82 156 138 174 155 12 11 58 52 101 90 44 39 104 93 135 120 133
120 203 180 213 186 7 4 62 10 122 14 61 3 126 8 145 10 19 2 87 6 150 9 63 4
165 16 225 28 61 11 119 22 130 24 11 2 43 8 70 13 28 6 64 12 80 15 17 3 41
7 55 11 23 5 206 39 274 52 16 2 82 15 145 28 l116 23 -380 -5 c-209 -3 -418
-6 -465 -7 -99 -2 -53 -28 -395 219 -126 92 -246 177 -265 191 l-35 24 -75
-29 c-41 -15 -147 -56 -235 -90 -88 -34 -186 -72 -218 -84 l-58 -21 -277 -346
c-152 -190 -279 -347 -282 -350 -3 -3 -18 -21 -34 -42 l-27 -36 -67 30 c-37
17 -89 40 -117 53 -27 12 -196 89 -375 170 -613 278 -753 341 -836 380 -39 19
-109 43 -155 55 -46 12 -113 30 -149 40 -36 10 -153 42 -260 70 -353 95 -594
159 -645 174 -27 8 -86 20 -130 26 -44 6 -102 15 -130 20 -27 5 -68 12 -90 15
-129 19 -314 47 -340 51 -69 11 -86 14 -112 18 -76 12 -120 19 -138 22 -10 2
-37 6 -60 9 -22 4 -80 12 -130 20 -80 12 -136 21 -200 30 -165 25 -234 36
-253 40 -15 4 -21 2 -17 -4z"/>
<path d="M5967 4734 c-1 -1 -58 -5 -127 -9 -69 -3 -141 -8 -160 -10 -19 -2
-61 -5 -93 -6 -41 -2 -67 -9 -85 -23 -22 -17 -370 -325 -408 -361 -6 -5 -42
-37 -79 -70 -38 -33 -79 -69 -91 -80 -28 -26 -69 -62 -174 -155 -103 -92 -89
-79 -191 -171 -46 -41 -104 -93 -129 -115 -25 -21 -47 -42 -50 -46 -3 -3 -61
-32 -130 -63 -69 -31 -150 -68 -180 -82 -30 -14 -68 -31 -85 -38 -37 -17 -131
-59 -210 -95 -130 -59 -162 -74 -210 -95 -27 -12 -87 -39 -132 -60 l-81 -38
18 -41 c10 -23 42 -97 70 -166 29 -69 61 -144 71 -167 11 -24 19 -45 19 -49 0
-3 11 -30 25 -59 45 -99 53 -79 -127 -331 -89 -126 -181 -255 -203 -286 -22
-32 -119 -168 -215 -304 -96 -135 -182 -255 -190 -267 -8 -12 -58 -83 -111
-157 -52 -74 -98 -140 -102 -146 -4 -7 365 112 819 264 l826 276 -6 40 c-5 35
-32 187 -51 291 -3 17 -13 68 -21 115 -9 47 -18 93 -20 103 -2 13 59 64 242
200 987 732 1130 840 1137 860 13 38 119 311 128 332 5 11 50 126 99 255 50
129 97 249 104 265 7 17 19 46 26 65 6 19 16 44 21 55 4 11 36 92 69 180 34
88 65 168 71 177 8 15 3 17 -37 15 -25 -1 -46 -2 -47 -3z"/>
</g>
</svg>
